%YAML 1.1
%TAG !u! tag:unity3d.com,2011:
--- !u!1045 &1
EditorBuildSettings:
  m_ObjectHideFlags: 0
  serializedVersion: 2
  m_Scenes:
  - enabled: 0
    path: 
    guid: 54413e6534cd96c4a934132bed0b3a24
  - enabled: 0
    path: 
    guid: 3b4d9834f64d4fd418020cb3439f1ffc
  - enabled: 1
    path: Assets/HelloEarth.unity
    guid: 54e7d585314749748b2994c518f2b885
